-65.6
-2.7
-123.1
10.7
16
-77.7
-2.7
-21.5
-2.7
-2.7
-50.8
-2.7
-107.1
-14.7
-5.4
-32.1
-91.1
46.9
-54.9
14.7
-5.4
-26.8
-123.1
10.7
-21.5
10.7
-72.3
-2.7
-21.5
-2.7
-13.3
-123.1
-2.7
-17.4
-1.3
-2.7
-40.2
10.7
46.9
-37.5
-128.5
32.1
-44.3
-81.8
-21.5
45.6
-134
-72.3
0
-99.1
-64.4
-37.5
-123.1
-2.7
-24.2
8.1
-123.1
-10.7
-85.6
0
-2.7
-101.9
-2.7
-2.7
-127.2
10.7
-21.5
-16
-26.8
-95.1
69.6
54.9
10.7
36.2
-59
-5.4
-53.5
-14.7
-50.8
-54.9
-2.7
-1.3
-1.3
-117.9
-2.7
37.5
-16
-5.4
-5.4
75
0
-16
-13.3
-112.5
4
5.4
1.3
-10.7
-1.3
9.5
-21.5
-85.6
48.2
29.4
-53.5
22.8
0
-101.9
-108.4
-22.8
-61.7
-42.9
-13.3
-9.3
30.8
-80.4
0
-57.6
-104.4
-26.8
-5.4
-1.3
75
34.8
46.9
0
-45.6
-50.8
-71
-112.5
0
12
-22.8
