26.4
6.2
20.2
46.6
33.4
16.8
10
15.8
13.6
55
16.2
8.2
26.2
47.8
11
15.4
16.8
32.8
35.2
43
16.4
16
19.2
45
16.2
38
25.4
7.8
28.4
9.6
14.6
23.2
8.8
29.4
39.4
3.2
15.6
57.6
38
36.2
23.4
35.6
25.4
24.2
15.6
33.8
21.2
19.4
13.8
17.8
25
17.6
22
4
27.2
31.2
17.6
42.8
17.6
2.4
55.4
17.6
14.8
13.2
19.6
52
40
35.2
47.8
24.2
35.4
32
55
30.2
16.6
26
15.4
53.2
15.8
15.4
10.6
6.8
2.6
20.4
6.6
28.4
27
10.2
14.6
31
11.4
14.6
48.8
18.6
27.6
39.2
34.4
41.6
44
27.2
26.2
19.4
32
42.4
24.6
36.2
3.6
21.4
21.8
14.6
16.2
16
40.4
14.6
41.6
16.4
44.4
25
17.8
25.6
14.6
8.8
34.8
35.6
28.6
50.6
27.2
18.6
16.8
24
42.8
28.2
15.4
